{
  "navlinks": [
    { "title": "Portfolio", "path": "/portfolio" },
    {
      "title": "About",
      "path": "/about"
    },
    {
      "title": "Contact",
      "path": "/contact"
    }
  ],
  "counts": [
    {
      "id": "002",
      "label": "The Sims 4",
      "hours": "1873",
      "duration": "2"
    },
    {
      "id": "001",
      "label": "The Witcher 3",
      "hours": "440.3",
      "duration": "2"
    },
    {
      "id": "003",
      "label": "RDR2",
      "hours": "670.5",
      "duration": "2"
    }
  ],
  "techstacks": [
    {
      "id": 1,
      "tooltip": "Bootstrap",
      "alt": "bootstrap icon",
      "src": "../../images/techstacks/bootstrap.png"
    },
    {
      "id": 2,
      "tooltip": "C#",
      "alt": "c# icon",
      "src": "../../images/techstacks/csharp.png"
    },
    {
      "id": 3,
      "tooltip": "Java",
      "alt": "java icon",
      "src": "../../images/techstacks/java.png"
    },
    {
      "id": 4,
      "tooltip": "CMS",
      "alt": "cms icon",
      "src": "../../images/techstacks/cms.png"
    },
    {
      "id": 5,
      "tooltip": "CSS",
      "alt": "css icon",
      "src": "../../images/techstacks/css.png"
    },
    {
      "id": 6,
      "tooltip": "Express JS",
      "alt": "express js icon",
      "src": "../../images/techstacks/expressjs.png"
    },
    {
      "id": 7,
      "tooltip": "Figma",
      "alt": "figma icon",
      "src": "../../images/techstacks/figma.png"
    },
    {
      "id": 8,
      "tooltip": "Github",
      "alt": "github icon",
      "src": "../../images/techstacks/github.png"
    },
    {
      "id": 9,
      "tooltip": "HTML",
      "alt": "html icon",
      "src": "../../images/techstacks/html.png"
    },
    {
      "id": 10,
      "tooltip": "Material UI",
      "alt": "material ui icon",
      "src": "../../images/techstacks/material-ui.png"
    },
    {
      "id": 11,
      "tooltip": "MySQL",
      "alt": "mysql icon",
      "src": "../../images/techstacks/mysql.png"
    },
    {
      "id": 12,
      "tooltip": "Node JS",
      "alt": "nodejs icon",
      "src": "../../images/techstacks/node.png"
    },
    {
      "id": 13,
      "tooltip": "Postgresql",
      "alt": "postgresql icon",
      "src": "../../images/techstacks/postgresql.png"
    },
    {
      "id": 14,
      "tooltip": "React",
      "alt": "react icon",
      "src": "../../images/techstacks/react.png"
    },
    {
      "id": 15,
      "tooltip": "REST API",
      "alt": "rest api icon",
      "src": "../../images/techstacks/rest-api.png"
    },
    {
      "id": 16,
      "tooltip": "typescript",
      "alt": "typescript icon",
      "src": "../../images/techstacks/typescript.png"
    },
    {
      "id": 17,
      "tooltip": "wordpress",
      "alt": "wordpress icon",
      "src": "../../images/techstacks/wordpress.png"
    }
  ],
  "degrees": [
    {
      "title": "UX and user-centered design",
      "year": "2023-current",
      "courses": [
        { "name": "Programmering I Java" },
        { "name": "HTML5 och CSS" },
        { "name": "Javascript" },
        { "name": "Projektkunskap enligt agila arbetsmetoder" }
      ]
    },
    {
      "title": "Java-development",
      "year": "2021-2023",
      "courses": [
        { "name": "Programmering I Java" },
        { "name": "HTML5 och CSS" },
        { "name": "Javascript" },
        { "name": "Projektkunskap enligt agila arbetsmetoder" },
        { "name": "Praktisk databasdesign" },
        { "name": "Webbutveckling I Java" },
        { "name": "Avancerad java" },
        { "name": "Testdriven utveckling I java" },
        { "name": "Java web-services" },
        { "name": "Skalbara tjänster" }
      ]
    },
    {
      "title": "Programming 2",
      "year": "2019-2021",
      "courses": [
        { "name": "HTML5 AND CSS" },
        { "name": "PHP" },
        { "name": "C#" }
      ]
    },
    {
      "title": "Programming 1",
      "year": "2017",
      "courses": [{ "name": "C#" }]
    }
  ],
  "portfolio": [
    {
      "id": 1,
      "title": "Softwerk",
      "desc": "Created a new website for Softwerk AB with Next JS and Strapi CMS",
      "src": "./softwerk.png",
      "link": "https://gitlab.com/MatildaHs/softwerk",
      "details": [
        {
          "longDesc": "I created a new design for Softwerks website during a 4 month long LIA. I worked alone on my team so the design is compeletely mine. I finished most of the design in code where I worked with Next.js and Strapi as CMS. The design is created with Figma.",
          "techs": [
            {
              "id": 14,
              "tooltip": "React",
              "alt": "react icon",
              "src": "../../images/techstacks/react.png"
            },
            {
              "id": 13,
              "tooltip": "Postgresql",
              "alt": "postgresql icon",
              "src": "../../images/techstacks/postgresql.png"
            },
            {
              "tooltip": "CMS",
              "alt": "cms icon",
              "src": "../../images/techstacks/cms.png"
            },
            {
              "tooltip": "Bootstrap",
              "alt": "bootstrap icon",
              "src": "../../images/techstacks/bootstrap.png"
            },
            {
              "tooltip": "Figma",
              "alt": "figma icon",
              "src": "../../images/techstacks/figma.png"
            },
            {
              "tooltip": "Material UI",
              "alt": "material ui icon",
              "src": "../../images/techstacks/material-ui.png"
            },
            {
              "tooltip": "Github",
              "alt": "github icon",
              "src": "../../images/techstacks/github.png"
            }
          ],

          "goals": [],
          "imgs": [
            {
              "src": "../../images/figma/Homepage.png",
              "alt": "Homepage"
            },
            {
              "src": "../../images/figma/Teamspage.jpg",
              "alt": "Teamspage"
            },
            {
              "src": "../../images/figma/Careers.jpg",
              "alt": "Career-page"
            },
            {
              "src": "../../images/figma/career.jpg",
              "alt": "Career-page"
            },
            {
              "src": "../../images/figma/Contactus.jpg",
              "alt": "Contact-page"
            },
            {
              "src": "../../images/figma/Services.jpg",
              "alt": "Homepage"
            },
            {
              "src": "../../images/figma/about.jpg",
              "alt": "About-page"
            }
          ]
        }
      ]
    },
    {
      "id": 2,
      "title": "Portfolio website",
      "desc": "My personal portfolio website created in React",
      "src": "./profile_picture.jpg",
      "link": "https://gitlab.com/MatildaSH/introduction",
      "details": [
        {
          "longDesc": "My personal portfolio website created in React and Express js. I have designed it in figma before implementing it in code. Some pages are not completley finished, like an About page which I´m still in the process of buildning. The page is still an ongiong project where I will continue to add content and new portfolio items as I go.",

          "techs": [
            {
              "tooltip": "Bootstrap",
              "alt": "bootstrap icon",
              "src": "../../images/techstacks/bootstrap.png"
            },
            {
              "id": 14,
              "tooltip": "React",
              "alt": "react icon",
              "src": "../../images/techstacks/react.png"
            },
            {
              "tooltip": "Figma",
              "alt": "figma icon",
              "src": "../../images/techstacks/figma.png"
            }
          ],
          "goals": [],
          "imgs": [
            {
              "src": "../../images/figma/Website.png",
              "alt": "Landing page"
            },
            {
              "src": "../../images/figma/Experience.jpg",
              "alt": "Portfolio"
            },
            {
              "src": "../../images/figma/Contact.jpg",
              "alt": "Contact"
            },
            {
              "src": "../../images/figma/Aboutme.png",
              "alt": "About me"
            }
          ]
        }
      ]
    },

    {
      "id": 3,
      "title": "AFFAB",
      "desc": "A website I´m updating and re-designing for property management company CJ ÅKESSON FASTIGHETSFÖRVALTNING AB",
      "src": ".../../images/figma/affab/Content.png",
      "link": "https://www.affab.se/",

      "details": [
        {
          "longDesc": "I'm in the process of redesigning affab.se which is a property management located in Skurup. The website is over 10 years old and came with some bugs that I was asked to fix. After it was done I came up with some design ideas on how to make the website more appealing and user friendly, which the customer liked. I'm now in the process of introducing those changes which I will list here. The finished changes are posted as images and will have a checkmark in the list.",
          "techs": [
            {
              "tooltip": "wordpress",
              "alt": "wordpress icon",
              "src": "../../images/techstacks/wordpress.png"
            },
            {
              "tooltip": "Figma",
              "alt": "figma icon",
              "src": "../../images/techstacks/figma.png"
            },

            {
              "tooltip": "CSS",
              "alt": "css icon",
              "src": "../../images/techstacks/css.png"
            },
            {
              "tooltip": "HTML",
              "alt": "html icon",
              "src": "../../images/techstacks/html.png"
            }
          ],
          "goals": [
            {
              "goal": "Correcting bug resulting in the website not showing the free section in the meny. ✅"
            },
            {
              "goal": "Giving the website a footer for easier navigation. ✅"
            },
            {
              "goal": "Correct issues with responsiveness on mobile version. ✅"
            },
            {
              "goal": "Redesigning header to clearly show what the company does."
            },
            {
              "goal": "Change the layout of form intresseanmälan to make it more userfriendly and less cluttered. Also give feedback to the user when theres an error and when the form is sent. ✅ "
            },
            {
              "goal": "Redesign navbar to be more user friendly. Clean up links and move hansalogen to footer ✅"
            },
            {
              "goal": "Update the the layout and headers to appear more modern, mainly on the landing page and on Om oss."
            },
            {
              "goal": "Update Kontakt form to match intresseanmälan. Ask about possibility to include email adress since some people prefer to email instead of filling out forms"
            },
            {
              "goal": "Fix the bug where ledigt in the menu don´t show up ✅"
            },
            {
              "goal": "Fix the bug where ledigt in the menu don´t show up ✅"
            },
            {
              "goal": "Remove the title and breadcrumbs on all pages"
            },
            {
              "goal": "Add more details about every apartment, pictures and prices"
            }
          ],
          "imgs": [
            {
              "src": "../../images/figma/affab/Screenshot 2024-02-27 225427.png",
              "alt": "Footer"
            },
            {
              "src": "../../images/figma/affab/form.png",
              "alt": "Intresseanmälan form"
            },
            {
              "src": "../../images/figma/affab/Group.png",
              "alt": "Intresseanmälan email response"
            }
          ]
        }
      ]
    },
    {
      "id": 4,
      "title": "Ux and usercentered design",
      "desc": "School projects where I created my first real UX project with userflow, wireframe and prototype. ",
      "src": "../../images/figma/Group94.png",

      "details": [
        {
          "longDesc": "A school project where my task was to act like an UX designer and perform all the steps taking in the UX process. I performed usertest, created a userflow, created a wireframe and finally made a working prototype.",
          "techs": [
            {
              "tooltip": "Figma",
              "alt": "figma icon",
              "src": "../../images/techstacks/figma.png"
            },
            {
              "tooltip": "wordpress",
              "alt": "wordpress icon",
              "src": "../../images/techstacks/wordpress.png"
            }
          ],

          "goals": [],
          "imgs": [
            {
              "src": "../../images/figma/Group87.png",
              "alt": "Behavioral architype"
            },
            {
              "src": "../../images/figma/userflow.png",
              "alt": "Userflow"
            },
            {
              "src": "../../images/figma/Group90.png",
              "alt": "Wireframe"
            },

            {
              "src": "../../images/figma/Group92.png",
              "alt": "Prototype web"
            },
            {
              "src": "../../images/figma/Group91.png",
              "alt": "Prototype mobile"
            },

            {
              "src": "../../images/figma/Group93.png",
              "alt": "Design system"
            }
          ]
        }
      ]
    },
    {
      "id": 5,
      "title": "Daily UI",
      "desc": "I´m creating designs and code along with the Daily UI Challenge",
      "src": "./dailyui.png",

      "details": [
        {
          "longDesc": "",
          "techs": [
            {
              "tooltip": "Figma",
              "alt": "figma icon",
              "src": "../../images/techstacks/figma.png"
            }
          ],

          "goals": [],
          "imgs": [{}]
        }
      ]
    }
  ],
  "contact": {
    "email": "m.h.schyler@gmail.com",
    "tel": "0706-818787",
    "gitlab": "https://gitlab.com/MatildaSH",
    "school": "https://gitlab.com/MatildaHs"
  },
  "catpics": [
    {
      "src": "images/img1.jpg",
      "alt": "cat profile"
    },
    {
      "src": "images/IMG_4621-min.jpg",
      "alt": "cat profile"
    },
    {
      "src": "images/IMG_1560-min.jpg",
      "alt": "cat profile"
    },
    {
      "src": "images/IMG_1630-min.jpg",
      "alt": "cat profile"
    },
    {
      "src": "images/IMG_2072-min.jpg",
      "alt": "cat profile"
    },
    {
      "src": "images/IMG_5345-min.jpg",
      "alt": "cat profile"
    }
  ],
  "tanzania": [
    {
      "src": "images/1.jpg",
      "alt": "cat profile"
    },
    {
      "src": "images/2.jpg",
      "alt": "cat profile"
    },
    {
      "src": "images/3.jpg",
      "alt": "cat profile"
    },
    {
      "src": "images/4.jpg",
      "alt": "cat profile"
    },
    {
      "src": "images/5.jpg",
      "alt": "cat profile"
    },
    {
      "src": "images/6.jpg",
      "alt": "cat profile"
    },
    {
      "src": "images/7.jpg",
      "alt": "cat profile"
    },
    {
      "src": "images/8.jpg",
      "alt": "cat profile"
    }
  ]
}
